vivado_scripts/example.vcd
$date today $end
$timescale 1 ns $end
$scope module filter_i $end
$var real 64 0 v_out $end
$upscope $end
$enddefinitions $end
#0
$dumpvars
rnan 0
$end
#1
r0 0
#2
r0.2999992370605469 0
#3
r0.5099977254867554 0
#4
r0.6569960117340088 0
#5
r0.7598943710327148 0
#6
r0.8319228887557983 0
#7
r0.8823426961898804 0
#8
r0.9176363945007324 0
#9
r0.9423418045043945 0
#10
r0.9596356153488159 0
#11
r0.9717411994934082 0
#12
r0.9802150726318359 0
#13
r0.9861466884613037 0
#14
r0.990298867225647 0
#15
r0.9932053089141846 0
#16
r0.9952398538589478 0
#17
r0.9966640472412109 0
#18
r0.9976609945297241 0
#19
r0.9983588457107544 0
#20
r0.9988473653793335 0
#21
r0.9991892576217651 0
#22
r0.9994286298751831 0
#23
r0.999596118927002 0
#24
r0.9997134208679199 0
#25
r0.9997955560684204 0
#26
r0.9998530149459839 0
#27
r0.9998931884765625 0
#28
r0.9999213218688965 0
#29
r0.9999411106109619 0
#30
r0.9999549388885498 0
#31
r0.9999645948410034 0
#32
r0.9999713897705078 0
#33
r0.9999761581420898 0
#34
r0.9999794960021973 0
#35
r0.9999817609786987 0
#36
r0.9999833106994629 0
#37
r0.9999845027923584 0
#38
r0.9999853372573853 0
#39
r0.9999858140945435 0
#40
r0.9999861717224121 0
#41
r0.9999864101409912 0
#42
r0.9999866485595703 0
#43
r0.9999867677688599 0
#44
r0.9999868869781494 0
#45
r0.999987006187439 0
#46
r0.999987006187439 0
#47
r0.999987006187439 0
#48
r0.999987006187439 0
#49
r0.999987006187439 0
#50
r0.999987006187439 0
#51
r0.999987006187439 0
#52
r0.999987006187439 0
#53
r0.999987006187439 0
#54
r0.999987006187439 0
#55
r0.999987006187439 0
#56
r0.999987006187439 0
#57
r0.999987006187439 0
#58
r0.999987006187439 0
#59
r0.999987006187439 0
#60
r0.999987006187439 0
#61
r0.999987006187439 0
#62
r0.999987006187439 0
#63
r0.999987006187439 0
#64
r0.999987006187439 0
#65
r0.999987006187439 0
#66
r0.999987006187439 0
#67
r0.999987006187439 0
#68
r0.999987006187439 0
#69
r0.999987006187439 0
#70
r0.999987006187439 0
#71
r0.999987006187439 0
#72
r0.999987006187439 0
#73
r0.999987006187439 0
#74
r0.999987006187439 0
#75
r0.999987006187439 0
#76
r0.999987006187439 0
#77
r0.999987006187439 0
#78
r0.999987006187439 0
#79
r0.999987006187439 0
#80
r0.999987006187439 0
#81
r0.999987006187439 0
#82
r0.999987006187439 0
#83
r0.999987006187439 0
#84
r0.999987006187439 0
#85
r0.999987006187439 0
#86
r0.999987006187439 0
#87
r0.999987006187439 0
#88
r0.999987006187439 0
#89
r0.999987006187439 0
#90
r0.999987006187439 0
#91
r0.999987006187439 0
#92
r0.999987006187439 0
#93
r0.999987006187439 0
#94
r0.999987006187439 0
#95
r0.999987006187439 0
#96
r0.999987006187439 0
#97
r0.999987006187439 0
#98
r0.999987006187439 0
#99
r0.999987006187439 0
#100
r0.999987006187439 0
#101
r0.999987006187439 0
#102
r0.999987006187439 0
#103
r0.999987006187439 0
#104
r0.999987006187439 0
#105
r0.999987006187439 0
#106
r0.999987006187439 0
#107
r0.999987006187439 0
#108
r0.999987006187439 0
#109
r0.999987006187439 0
#110
r0.999987006187439 0
#111
r0.999987006187439 0
#112
r0.999987006187439 0
#113
r0.999987006187439 0
#114
r0.999987006187439 0
#115
r0.999987006187439 0
#116
r0.999987006187439 0
#117
r0.999987006187439 0
#118
r0.999987006187439 0
#119
r0.999987006187439 0
#120
r0.999987006187439 0
#121
r0.999987006187439 0
#122
r0.999987006187439 0
#123
r0.999987006187439 0
#124
r0.999987006187439 0
#125
r0.999987006187439 0
#126
r0.999987006187439 0
#127
r0.999987006187439 0
#128
r0.999987006187439 0
#129
r0.999987006187439 0
#130
r0.999987006187439 0
#131
r0.999987006187439 0
#132
r0.999987006187439 0
#133
r0.999987006187439 0
#134
r0.999987006187439 0
#135
r0.999987006187439 0
#136
r0.999987006187439 0
#137
r0.999987006187439 0
#138
r0.999987006187439 0
#139
r0.999987006187439 0
#140
r0.999987006187439 0
#141
r0.999987006187439 0
#142
r0.999987006187439 0
#143
r0.999987006187439 0
#144
r0.999987006187439 0
#145
r0.999987006187439 0
#146
r0.999987006187439 0
#147
r0.999987006187439 0
#148
r0.999987006187439 0
#149
r0.999987006187439 0
#150
r0.999987006187439 0
#151
r0.999987006187439 0
#152
r0.999987006187439 0
#153
r0.999987006187439 0
#154
r0.999987006187439 0
#155
r0.999987006187439 0
#156
r0.999987006187439 0
#157
r0.999987006187439 0
#158
r0.999987006187439 0
#159
r0.999987006187439 0
#160
r0.999987006187439 0
#161
r0.999987006187439 0
#162
r0.999987006187439 0
#163
r0.999987006187439 0
#164
r0.999987006187439 0
#165
r0.999987006187439 0
#166
r0.999987006187439 0
#167
r0.999987006187439 0
#168
r0.999987006187439 0
#169
r0.999987006187439 0
#170
r0.999987006187439 0
#171
r0.999987006187439 0
#172
r0.999987006187439 0
#173
r0.999987006187439 0
#174
r0.999987006187439 0
#175
r0.999987006187439 0
#176
r0.999987006187439 0
#177
r0.999987006187439 0
#178
r0.999987006187439 0
#179
r0.999987006187439 0
#180
r0.999987006187439 0
#181
r0.999987006187439 0
#182
r0.999987006187439 0
#183
r0.999987006187439 0
#184
r0.999987006187439 0
#185
r0.999987006187439 0
#186
r0.999987006187439 0
#187
r0.999987006187439 0
#188
r0.999987006187439 0
#189
r0.999987006187439 0
#190
r0.999987006187439 0
#191
r0.999987006187439 0
#192
r0.999987006187439 0
#193
r0.999987006187439 0
#194
r0.999987006187439 0
#195
r0.999987006187439 0
#196
r0.999987006187439 0
#197
r0.999987006187439 0
#198
r0.999987006187439 0
#199
r0.999987006187439 0
#200
r0.999987006187439 0
#201
r0.999987006187439 0
#202
r0.999987006187439 0
#203
r0.999987006187439 0
#204
r0.999987006187439 0
#205
r0.999987006187439 0
#206
r0.999987006187439 0
#207
r0.999987006187439 0
#208
r0.999987006187439 0
#209
r0.999987006187439 0
#210
r0.999987006187439 0
#211
r0.999987006187439 0
#212
r0.999987006187439 0
#213
r0.999987006187439 0
#214
r0.999987006187439 0
#215
r0.999987006187439 0
#216
r0.999987006187439 0
#217
r0.999987006187439 0
#218
r0.999987006187439 0
#219
r0.999987006187439 0
#220
r0.999987006187439 0
#221
r0.999987006187439 0
#222
r0.999987006187439 0
#223
r0.999987006187439 0
#224
r0.999987006187439 0
#225
r0.999987006187439 0
#226
r0.999987006187439 0
#227
r0.999987006187439 0
#228
r0.999987006187439 0
#229
r0.999987006187439 0
#230
r0.999987006187439 0
#231
r0.999987006187439 0
#232
r0.999987006187439 0
#233
r0.999987006187439 0
#234
r0.999987006187439 0
#235
r0.999987006187439 0
#236
r0.999987006187439 0
#237
r0.999987006187439 0
#238
r0.999987006187439 0
#239
r0.999987006187439 0
#240
r0.999987006187439 0
#241
r0.999987006187439 0
#242
r0.999987006187439 0
#243
r0.999987006187439 0
#244
r0.999987006187439 0
#245
r0.999987006187439 0
#246
r0.999987006187439 0
#247
r0.999987006187439 0
#248
r0.999987006187439 0
#249
r0.999987006187439 0
#250
r0.999987006187439 0
#251
r0.999987006187439 0
#252
r0.999987006187439 0
#253
r0.999987006187439 0
#254
r0.999987006187439 0
#255
r0.999987006187439 0
#256
r0.999987006187439 0
#257
r0.999987006187439 0
#258
r0.999987006187439 0
#259
r0.999987006187439 0
#260
r0.999987006187439 0
#261
r0.999987006187439 0
#262
r0.999987006187439 0
#263
r0.999987006187439 0
#264
r0.999987006187439 0
#265
r0.999987006187439 0
#266
r0.999987006187439 0
#267
r0.999987006187439 0
#268
r0.999987006187439 0
#269
r0.999987006187439 0
#270
r0.999987006187439 0
#271
r0.999987006187439 0
#272
r0.999987006187439 0
#273
r0.999987006187439 0
#274
r0.999987006187439 0
#275
r0.999987006187439 0
#276
r0.999987006187439 0
#277
r0.999987006187439 0
#278
r0.999987006187439 0
#279
r0.999987006187439 0
#280
r0.999987006187439 0
#281
r0.999987006187439 0
#282
r0.999987006187439 0
#283
r0.999987006187439 0
#284
r0.999987006187439 0
#285
r0.999987006187439 0
#286
r0.999987006187439 0
#287
r0.999987006187439 0
#288
r0.999987006187439 0
#289
r0.999987006187439 0
#290
r0.999987006187439 0
#291
r0.999987006187439 0
#292
r0.999987006187439 0
#293
r0.999987006187439 0
#294
r0.999987006187439 0
#295
r0.999987006187439 0
#296
r0.999987006187439 0
#297
r0.999987006187439 0
#298
r0.999987006187439 0
#299
r0.999987006187439 0
#300
r0.999987006187439 0
#301
r0.999987006187439 0
#302
r0.999987006187439 0
#303
r0.999987006187439 0
#304
r0.999987006187439 0
#305
r0.999987006187439 0
#306
r0.999987006187439 0
#307
r0.999987006187439 0
#308
r0.999987006187439 0
#309
r0.999987006187439 0
#310
r0.999987006187439 0
#311
r0.999987006187439 0
#312
r0.999987006187439 0
#313
r0.999987006187439 0
#314
r0.999987006187439 0
#315
r0.999987006187439 0
#316
r0.999987006187439 0
#317
r0.999987006187439 0
#318
r0.999987006187439 0
#319
r0.999987006187439 0
#320
r0.999987006187439 0
#321
r0.999987006187439 0
#322
r0.999987006187439 0
#323
r0.999987006187439 0
#324
r0.999987006187439 0
#325
r0.999987006187439 0
#326
r0.999987006187439 0
#327
r0.999987006187439 0
#328
r0.999987006187439 0
#329
r0.999987006187439 0
#330
r0.999987006187439 0
#331
r0.999987006187439 0
#332
r0.999987006187439 0
#333
r0.999987006187439 0
#334
r0.999987006187439 0
#335
r0.999987006187439 0
#336
r0.999987006187439 0
#337
r0.999987006187439 0
#338
r0.999987006187439 0
#339
r0.999987006187439 0
#340
r0.999987006187439 0
#341
r0.999987006187439 0
#342
r0.999987006187439 0
#343
r0.999987006187439 0
#344
r0.999987006187439 0
#345
r0.999987006187439 0
#346
r0.999987006187439 0
#347
r0.999987006187439 0
#348
r0.999987006187439 0
#349
r0.999987006187439 0
#350
r0.999987006187439 0
#351
r0.999987006187439 0
#352
r0.999987006187439 0
#353
r0.999987006187439 0
#354
r0.999987006187439 0
#355
r0.999987006187439 0
#356
r0.999987006187439 0
#357
r0.999987006187439 0
#358
r0.999987006187439 0
#359
r0.999987006187439 0
#360
r0.999987006187439 0
#361
r0.999987006187439 0
#362
r0.999987006187439 0
#363
r0.999987006187439 0
#364
r0.999987006187439 0
#365
r0.999987006187439 0
#366
r0.999987006187439 0
#367
r0.999987006187439 0
#368
r0.999987006187439 0
#369
r0.999987006187439 0
#370
r0.999987006187439 0
#371
r0.999987006187439 0
#372
r0.999987006187439 0
#373
r0.999987006187439 0
#374
r0.999987006187439 0
#375
r0.999987006187439 0
#376
r0.999987006187439 0
#377
r0.999987006187439 0
#378
r0.999987006187439 0
#379
r0.999987006187439 0
#380
r0.999987006187439 0
#381
r0.999987006187439 0
#382
r0.999987006187439 0
#383
r0.999987006187439 0
#384
r0.999987006187439 0
#385
r0.999987006187439 0
#386
r0.999987006187439 0
#387
r0.999987006187439 0
#388
r0.999987006187439 0
#389
r0.999987006187439 0
#390
r0.999987006187439 0
#391
r0.999987006187439 0
#392
r0.999987006187439 0
#393
r0.999987006187439 0
#394
r0.999987006187439 0
#395
r0.999987006187439 0
#396
r0.999987006187439 0
#397
r0.999987006187439 0
#398
r0.999987006187439 0
#399
r0.999987006187439 0
#400
r0.999987006187439 0
#401
r0.999987006187439 0
#402
r0.999987006187439 0
#403
r0.999987006187439 0
#404
r0.999987006187439 0
#405
r0.999987006187439 0
#406
r0.999987006187439 0
#407
r0.999987006187439 0
#408
r0.999987006187439 0
#409
r0.999987006187439 0
#410
r0.999987006187439 0
#411
r0.999987006187439 0
#412
r0.999987006187439 0
#413
r0.999987006187439 0
#414
r0.999987006187439 0
#415
r0.999987006187439 0
#416
r0.999987006187439 0
#417
r0.999987006187439 0
#418
r0.999987006187439 0
#419
r0.999987006187439 0
#420
r0.999987006187439 0
#421
r0.999987006187439 0
#422
r0.999987006187439 0
#423
r0.999987006187439 0
#424
r0.999987006187439 0
#425
r0.999987006187439 0
#426
r0.999987006187439 0
#427
r0.999987006187439 0
#428
r0.999987006187439 0
#429
r0.999987006187439 0
#430
r0.999987006187439 0
#431
r0.999987006187439 0
#432
r0.999987006187439 0
#433
r0.999987006187439 0
#434
r0.999987006187439 0
#435
r0.999987006187439 0
#436
r0.999987006187439 0
#437
r0.999987006187439 0
#438
r0.999987006187439 0
#439
r0.999987006187439 0
#440
r0.999987006187439 0
#441
r0.999987006187439 0
#442
r0.999987006187439 0
#443
r0.999987006187439 0
#444
r0.999987006187439 0
#445
r0.999987006187439 0
#446
r0.999987006187439 0
#447
r0.999987006187439 0
#448
r0.999987006187439 0
#449
r0.999987006187439 0
#450
r0.999987006187439 0
#451
r0.999987006187439 0
#452
r0.999987006187439 0
#453
r0.999987006187439 0
#454
r0.999987006187439 0
#455
r0.999987006187439 0
#456
r0.999987006187439 0
#457
r0.999987006187439 0
#458
r0.999987006187439 0
#459
r0.999987006187439 0
#460
r0.999987006187439 0
#461
r0.999987006187439 0
#462
r0.999987006187439 0
#463
r0.999987006187439 0
#464
r0.999987006187439 0
#465
r0.999987006187439 0
#466
r0.999987006187439 0
#467
r0.999987006187439 0
#468
r0.999987006187439 0
#469
r0.999987006187439 0
#470
r0.999987006187439 0
#471
r0.999987006187439 0
#472
r0.999987006187439 0
#473
r0.999987006187439 0
#474
r0.999987006187439 0
#475
r0.999987006187439 0
#476
r0.999987006187439 0
#477
r0.999987006187439 0
#478
r0.999987006187439 0
#479
r0.999987006187439 0
#480
r0.999987006187439 0
#481
r0.999987006187439 0
#482
r0.999987006187439 0
#483
r0.999987006187439 0
#484
r0.999987006187439 0
#485
r0.999987006187439 0
#486
r0.999987006187439 0
#487
r0.999987006187439 0
#488
r0.999987006187439 0
#489
r0.999987006187439 0
#490
r0.999987006187439 0
#491
r0.999987006187439 0
#492
r0.999987006187439 0
#493
r0.999987006187439 0
#494
r0.999987006187439 0
#495
r0.999987006187439 0
#496
r0.999987006187439 0
#497
r0.999987006187439 0
#498
r0.999987006187439 0
#499
r0.999987006187439 0
#500
r0.999987006187439 0
#501
r0.999987006187439 0
#502
r0.999987006187439 0
#503
r0.999987006187439 0
#504
r0.999987006187439 0
#505
r0.999987006187439 0
#506
r0.999987006187439 0
#507
r0.999987006187439 0
#508
r0.999987006187439 0
#509
r0.999987006187439 0
#510
r0.999987006187439 0
#511
r0.999987006187439 0
#512
r0.999987006187439 0
#513
r0.999987006187439 0
#514
r0.999987006187439 0
#515
r0.999987006187439 0
#516
r0.999987006187439 0
#517
r0.999987006187439 0
#518
r0.999987006187439 0
#519
r0.999987006187439 0
#520
r0.999987006187439 0
#521
r0.999987006187439 0
#522
r0.999987006187439 0
#523
r0.999987006187439 0
#524
r0.999987006187439 0
#525
r0.999987006187439 0
#526
r0.999987006187439 0
#527
r0.999987006187439 0
#528
r0.999987006187439 0
#529
r0.999987006187439 0
#530
r0.999987006187439 0
#531
r0.999987006187439 0
#532
r0.999987006187439 0
#533
r0.999987006187439 0
#534
r0.999987006187439 0
#535
r0.999987006187439 0
#536
r0.999987006187439 0
#537
r0.999987006187439 0
#538
r0.999987006187439 0
#539
r0.999987006187439 0
#540
r0.999987006187439 0
#541
r0.999987006187439 0
#542
r0.999987006187439 0
#543
r0.999987006187439 0
#544
r0.999987006187439 0
#545
r0.999987006187439 0
#546
r0.999987006187439 0
#547
r0.999987006187439 0
#548
r0.999987006187439 0
#549
r0.999987006187439 0
#550
r0.999987006187439 0
#551
r0.999987006187439 0
#552
r0.999987006187439 0
#553
r0.999987006187439 0
#554
r0.999987006187439 0
#555
r0.999987006187439 0
#556
r0.999987006187439 0
#557
r0.999987006187439 0
#558
r0.999987006187439 0
#559
r0.999987006187439 0
#560
r0.999987006187439 0
#561
r0.999987006187439 0
#562
r0.999987006187439 0
#563
r0.999987006187439 0
#564
r0.999987006187439 0
#565
r0.999987006187439 0
#566
r0.999987006187439 0
#567
r0.999987006187439 0
#568
r0.999987006187439 0
#569
r0.999987006187439 0
#570
r0.999987006187439 0
#571
r0.999987006187439 0
#572
r0.999987006187439 0
#573
r0.999987006187439 0
#574
r0.999987006187439 0
#575
r0.999987006187439 0
#576
r0.999987006187439 0
#577
r0.999987006187439 0
#578
r0.999987006187439 0
#579
r0.999987006187439 0
#580
r0.999987006187439 0
#581
r0.999987006187439 0
#582
r0.999987006187439 0
#583
r0.999987006187439 0
#584
r0.999987006187439 0
#585
r0.999987006187439 0
#586
r0.999987006187439 0
#587
r0.999987006187439 0
#588
r0.999987006187439 0
#589
r0.999987006187439 0
#590
r0.999987006187439 0
#591
r0.999987006187439 0
#592
r0.999987006187439 0
#593
r0.999987006187439 0
#594
r0.999987006187439 0
#595
r0.999987006187439 0
#596
r0.999987006187439 0
#597
r0.999987006187439 0
#598
r0.999987006187439 0
#599
r0.999987006187439 0
#600
r0.999987006187439 0
#601
r0.999987006187439 0
#602
r0.999987006187439 0
#603
r0.999987006187439 0
#604
r0.999987006187439 0
#605
r0.999987006187439 0
#606
r0.999987006187439 0
#607
r0.999987006187439 0
#608
r0.999987006187439 0
#609
r0.999987006187439 0
#610
r0.999987006187439 0
#611
r0.999987006187439 0
#612
r0.999987006187439 0
#613
r0.999987006187439 0
#614
r0.999987006187439 0
#615
r0.999987006187439 0
#616
r0.999987006187439 0
#617
r0.999987006187439 0
#618
r0.999987006187439 0
#619
r0.999987006187439 0
#620
r0.999987006187439 0
#621
r0.999987006187439 0
#622
r0.999987006187439 0
#623
r0.999987006187439 0
#624
r0.999987006187439 0
#625
r0.999987006187439 0
#626
r0.999987006187439 0
#627
r0.999987006187439 0
#628
r0.999987006187439 0
#629
r0.999987006187439 0
#630
r0.999987006187439 0
#631
r0.999987006187439 0
#632
r0.999987006187439 0
#633
r0.999987006187439 0
#634
r0.999987006187439 0
#635
r0.999987006187439 0
#636
r0.999987006187439 0
#637
r0.999987006187439 0
#638
r0.999987006187439 0
#639
r0.999987006187439 0
#640
r0.999987006187439 0
#641
r0.999987006187439 0
#642
r0.999987006187439 0
#643
r0.999987006187439 0
#644
r0.999987006187439 0
#645
r0.999987006187439 0
#646
r0.999987006187439 0
#647
r0.999987006187439 0
#648
r0.999987006187439 0
#649
r0.999987006187439 0
#650
r0.999987006187439 0
#651
r0.999987006187439 0
#652
r0.999987006187439 0
#653
r0.999987006187439 0
#654
r0.999987006187439 0
#655
r0.999987006187439 0
#656
r0.999987006187439 0
#657
r0.999987006187439 0
#658
r0.999987006187439 0
#659
r0.999987006187439 0
#660
r0.999987006187439 0
#661
r0.999987006187439 0
#662
r0.999987006187439 0
#663
r0.999987006187439 0
#664
r0.999987006187439 0
#665
r0.999987006187439 0
#666
r0.999987006187439 0
#667
r0.999987006187439 0
#668
r0.999987006187439 0
#669
r0.999987006187439 0
#670
r0.999987006187439 0
#671
r0.999987006187439 0
#672
r0.999987006187439 0
#673
r0.999987006187439 0
#674
r0.999987006187439 0
#675
r0.999987006187439 0
#676
r0.999987006187439 0
#677
r0.999987006187439 0
#678
r0.999987006187439 0
#679
r0.999987006187439 0
#680
r0.999987006187439 0
#681
r0.999987006187439 0
#682
r0.999987006187439 0
#683
r0.999987006187439 0
#684
r0.999987006187439 0
#685
r0.999987006187439 0
#686
r0.999987006187439 0
#687
r0.999987006187439 0
#688
r0.999987006187439 0
#689
r0.999987006187439 0
#690
r0.999987006187439 0
#691
r0.999987006187439 0
#692
r0.999987006187439 0
#693
r0.999987006187439 0
#694
r0.999987006187439 0
#695
r0.999987006187439 0
#696
r0.999987006187439 0
#697
r0.999987006187439 0
#698
r0.999987006187439 0
#699
r0.999987006187439 0
#700
r0.999987006187439 0
#701
r0.999987006187439 0
#702
r0.999987006187439 0
#703
r0.999987006187439 0
#704
r0.999987006187439 0
#705
r0.999987006187439 0
#706
r0.999987006187439 0
#707
r0.999987006187439 0
#708
r0.999987006187439 0
#709
r0.999987006187439 0
#710
r0.999987006187439 0
#711
r0.999987006187439 0
#712
r0.999987006187439 0
#713
r0.999987006187439 0
#714
r0.999987006187439 0
#715
r0.999987006187439 0
#716
r0.999987006187439 0
#717
r0.999987006187439 0
#718
r0.999987006187439 0
#719
r0.999987006187439 0
#720
r0.999987006187439 0
#721
r0.999987006187439 0
#722
r0.999987006187439 0
#723
r0.999987006187439 0
#724
r0.999987006187439 0
#725
r0.999987006187439 0
#726
r0.999987006187439 0
#727
r0.999987006187439 0
#728
r0.999987006187439 0
#729
r0.999987006187439 0
#730
r0.999987006187439 0
#731
r0.999987006187439 0
#732
r0.999987006187439 0
#733
r0.999987006187439 0
#734
r0.999987006187439 0
#735
r0.999987006187439 0
#736
r0.999987006187439 0
#737
r0.999987006187439 0
#738
r0.999987006187439 0
#739
r0.999987006187439 0
#740
r0.999987006187439 0
#741
r0.999987006187439 0
#742
r0.999987006187439 0
#743
r0.999987006187439 0
#744
r0.999987006187439 0
#745
r0.999987006187439 0
#746
r0.999987006187439 0
#747
r0.999987006187439 0
#748
r0.999987006187439 0
#749
r0.999987006187439 0
#750
r0.999987006187439 0
#751
r0.999987006187439 0
#752
r0.999987006187439 0
#753
r0.999987006187439 0
#754
r0.999987006187439 0
#755
r0.999987006187439 0
#756
r0.999987006187439 0
#757
r0.999987006187439 0
#758
r0.999987006187439 0
#759
r0.999987006187439 0
#760
r0.999987006187439 0
#761
r0.999987006187439 0
#762
r0.999987006187439 0
#763
r0.999987006187439 0
#764
r0.999987006187439 0
#765
r0.999987006187439 0
#766
r0.999987006187439 0
#767
r0.999987006187439 0
#768
r0.999987006187439 0
#769
r0.999987006187439 0
#770
r0.999987006187439 0
#771
r0.999987006187439 0
#772
r0.999987006187439 0
#773
r0.999987006187439 0
#774
r0.999987006187439 0
#775
r0.999987006187439 0
#776
r0.999987006187439 0
#777
r0.999987006187439 0
#778
r0.999987006187439 0
#779
r0.999987006187439 0
#780
r0.999987006187439 0
#781
r0.999987006187439 0
#782
r0.999987006187439 0
#783
r0.999987006187439 0
#784
r0.999987006187439 0
#785
r0.999987006187439 0
#786
r0.999987006187439 0
#787
r0.999987006187439 0
#788
r0.999987006187439 0
#789
r0.999987006187439 0
#790
r0.999987006187439 0
#791
r0.999987006187439 0
#792
r0.999987006187439 0
#793
r0.999987006187439 0
#794
r0.999987006187439 0
#795
r0.999987006187439 0
#796
r0.999987006187439 0
#797
r0.999987006187439 0
#798
r0.999987006187439 0
#799
r0.999987006187439 0
#800
r0.999987006187439 0
#801
r0.999987006187439 0
#802
r0.999987006187439 0
#803
r0.999987006187439 0
#804
r0.999987006187439 0
#805
r0.999987006187439 0
#806
r0.999987006187439 0
#807
r0.999987006187439 0
#808
r0.999987006187439 0
#809
r0.999987006187439 0
#810
r0.999987006187439 0
#811
r0.999987006187439 0
#812
r0.999987006187439 0
#813
r0.999987006187439 0
#814
r0.999987006187439 0
#815
r0.999987006187439 0
#816
r0.999987006187439 0
#817
r0.999987006187439 0
#818
r0.999987006187439 0
#819
r0.999987006187439 0
#820
r0.999987006187439 0
#821
r0.999987006187439 0
#822
r0.999987006187439 0
#823
r0.999987006187439 0
#824
r0.999987006187439 0
#825
r0.999987006187439 0
#826
r0.999987006187439 0
#827
r0.999987006187439 0
#828
r0.999987006187439 0
#829
r0.999987006187439 0
#830
r0.999987006187439 0
#831
r0.999987006187439 0
#832
r0.999987006187439 0
#833
r0.999987006187439 0
#834
r0.999987006187439 0
#835
r0.999987006187439 0
#836
r0.999987006187439 0
#837
r0.999987006187439 0
#838
r0.999987006187439 0
#839
r0.999987006187439 0
#840
r0.999987006187439 0
#841
r0.999987006187439 0
#842
r0.999987006187439 0
#843
r0.999987006187439 0
#844
r0.999987006187439 0
#845
r0.999987006187439 0
#846
r0.999987006187439 0
#847
r0.999987006187439 0
#848
r0.999987006187439 0
#849
r0.999987006187439 0
#850
r0.999987006187439 0
#851
r0.999987006187439 0
#852
r0.999987006187439 0
#853
r0.999987006187439 0
#854
r0.999987006187439 0
#855
r0.999987006187439 0
#856
r0.999987006187439 0
#857
r0.999987006187439 0
#858
r0.999987006187439 0
#859
r0.999987006187439 0
#860
r0.999987006187439 0
#861
r0.999987006187439 0
#862
r0.999987006187439 0
#863
r0.999987006187439 0
#864
r0.999987006187439 0
#865
r0.999987006187439 0
#866
r0.999987006187439 0
#867
r0.999987006187439 0
#868
r0.999987006187439 0
#869
r0.999987006187439 0
#870
r0.999987006187439 0
#871
r0.999987006187439 0
#872
r0.999987006187439 0
#873
r0.999987006187439 0
#874
r0.999987006187439 0
#875
r0.999987006187439 0
#876
r0.999987006187439 0
#877
r0.999987006187439 0
#878
r0.999987006187439 0
#879
r0.999987006187439 0
#880
r0.999987006187439 0
#881
r0.999987006187439 0
#882
r0.999987006187439 0
#883
r0.999987006187439 0
#884
r0.999987006187439 0
#885
r0.999987006187439 0
#886
r0.999987006187439 0
#887
r0.999987006187439 0
#888
r0.999987006187439 0
#889
r0.999987006187439 0
#890
r0.999987006187439 0
#891
r0.999987006187439 0
#892
r0.999987006187439 0
#893
r0.999987006187439 0
#894
r0.999987006187439 0
#895
r0.999987006187439 0
#896
r0.999987006187439 0
#897
r0.999987006187439 0
#898
r0.999987006187439 0
#899
r0.999987006187439 0
#900
r0.999987006187439 0
#901
r0.999987006187439 0
#902
r0.999987006187439 0
#903
r0.999987006187439 0
#904
r0.999987006187439 0
#905
r0.999987006187439 0
#906
r0.999987006187439 0
#907
r0.999987006187439 0
#908
r0.999987006187439 0
#909
r0.999987006187439 0
#910
r0.999987006187439 0
#911
r0.999987006187439 0
#912
r0.999987006187439 0
#913
r0.999987006187439 0
#914
r0.999987006187439 0
#915
r0.999987006187439 0
#916
r0.999987006187439 0
#917
r0.999987006187439 0
#918
r0.999987006187439 0
#919
r0.999987006187439 0
#920
r0.999987006187439 0
#921
r0.999987006187439 0
#922
r0.999987006187439 0
#923
r0.999987006187439 0
#924
r0.999987006187439 0
#925
r0.999987006187439 0
#926
r0.999987006187439 0
#927
r0.999987006187439 0
#928
r0.999987006187439 0
#929
r0.999987006187439 0
#930
r0.999987006187439 0
#931
r0.999987006187439 0
#932
r0.999987006187439 0
#933
r0.999987006187439 0
#934
r0.999987006187439 0
#935
r0.999987006187439 0
#936
r0.999987006187439 0
#937
r0.999987006187439 0
#938
r0.999987006187439 0
#939
r0.999987006187439 0
#940
r0.999987006187439 0
#941
r0.999987006187439 0
#942
r0.999987006187439 0
#943
r0.999987006187439 0
#944
r0.999987006187439 0
#945
r0.999987006187439 0
#946
r0.999987006187439 0
#947
r0.999987006187439 0
#948
r0.999987006187439 0
#949
r0.999987006187439 0
#950
r0.999987006187439 0
#951
r0.999987006187439 0
#952
r0.999987006187439 0
#953
r0.999987006187439 0
#954
r0.999987006187439 0
#955
r0.999987006187439 0
#956
r0.999987006187439 0
#957
r0.999987006187439 0
#958
r0.999987006187439 0
#959
r0.999987006187439 0
#960
r0.999987006187439 0
#961
r0.999987006187439 0
#962
r0.999987006187439 0
#963
r0.999987006187439 0
#964
r0.999987006187439 0
#965
r0.999987006187439 0
#966
r0.999987006187439 0
#967
r0.999987006187439 0
#968
r0.999987006187439 0
#969
r0.999987006187439 0
#970
r0.999987006187439 0
#971
r0.999987006187439 0
#972
r0.999987006187439 0
#973
r0.999987006187439 0
#974
r0.999987006187439 0
#975
r0.999987006187439 0
#976
r0.999987006187439 0
#977
r0.999987006187439 0
#978
r0.999987006187439 0
#979
r0.999987006187439 0
#980
r0.999987006187439 0
#981
r0.999987006187439 0
#982
r0.999987006187439 0
#983
r0.999987006187439 0
#984
r0.999987006187439 0
#985
r0.999987006187439 0
#986
r0.999987006187439 0
#987
r0.999987006187439 0
#988
r0.999987006187439 0
#989
r0.999987006187439 0
#990
r0.999987006187439 0
#991
r0.999987006187439 0
#992
r0.999987006187439 0
#993
r0.999987006187439 0
#994
r0.999987006187439 0
#995
r0.999987006187439 0
#996
r0.999987006187439 0
#997
r0.999987006187439 0
#998
r0.999987006187439 0
#999
r0.999987006187439 0
#1000
r0.999987006187439 0
#1001
r0.999987006187439 0
#1002
r0.999987006187439 0
#1003
r0.999987006187439 0
#1004
r0.999987006187439 0
#1005
r0.999987006187439 0
#1006
r0.999987006187439 0
#1007
r0.999987006187439 0
#1008
r0.999987006187439 0
#1009
r0.999987006187439 0
#1010
r0.999987006187439 0
#1011
r0.999987006187439 0
#1012
r0.999987006187439 0
#1013
r0.999987006187439 0
#1014
r0.999987006187439 0
#1015
r0.999987006187439 0
#1016
r0.999987006187439 0
#1017
r0.999987006187439 0
#1018
r0.999987006187439 0
#1019
r0.999987006187439 0
#1020
r0.999987006187439 0
#1021
r0.999987006187439 0
#1022
r0.999987006187439 0
#1023
r0.999987006187439 0
#1024
r0.999987006187439 0
